module quote-service

go 1.14

require (
	github.com/Joker/jade v1.0.0 // indirect
	github.com/Shopify/goreferrer v0.0.0-20181106222321-ec9c9a553398 // indirect
	github.com/aymerick/raymond v2.0.2+incompatible // indirect
	github.com/davecgh/go-spew v1.1.1
	github.com/eknkc/amber v0.0.0-20171010120322-cdade1c07385 // indirect
	github.com/fatih/structs v1.1.0 // indirect
	github.com/flosch/pongo2 v0.0.0-20190707114632-bbf5a6c351f4 // indirect
	github.com/go-playground/universal-translator v0.17.0 // indirect
	github.com/gorilla/schema v1.1.0 // indirect
	github.com/iris-contrib/blackfriday v2.0.0+incompatible // indirect
	github.com/iris-contrib/formBinder v5.0.0+incompatible // indirect
	github.com/iris-contrib/go.uuid v2.0.0+incompatible // indirect
	github.com/json-iterator/go v1.1.9 // indirect
	github.com/kataras/golog v0.0.10 // indirect
	github.com/kataras/iris v11.1.1+incompatible
	github.com/leodido/go-urn v1.2.0 // indirect
	github.com/microcosm-cc/bluemonday v1.0.2 // indirect
	github.com/ryanuber/columnize v2.1.0+incompatible // indirect
	github.com/shurcooL/sanitized_anchor_name v1.0.0 // indirect
	go.mongodb.org/mongo-driver v1.3.1
	gopkg.in/go-playground/validator.v9 v9.31.0
	gopkg.in/mgo.v2 v2.0.0-20190816093944-a6b53ec6cb22
)
